digraph G {
//    splines="FALSE";

    /* Mass nodes */
    S0  [label="Sodium Crust", shape="box"]
    GAS [label="Gas",          shape="ellipse"]

    /* External sources/sinks */
    EXT_LEAK    [label="Gas\nin/outleakage",  shape="hexagon"]
    EXT_EXHAUST [label="Gas\nsupply/exhaust", shape="hexagon"]

    /* Internal mass transfer paths */
    S0          -> GAS [label="WFIRE", style="solid", dir="both"]

    /* Mass transfer paths - external source/sinks */
    EXT_LEAK    -> GAS [label="WLEAK",    style="solid", dir="both", penwidth="2"]
    EXT_EXHAUST -> GAS [label="WEXHAUST", style="solid", dir="both", penwidth="2"]

    /* Ranks */
    /*
    { rank=same; shortName; };
    */
}